{
   "projects":[
      {
         "title":"Ciripitor",
        "descriptor": "Ciripitor",
        "repository": "https://bitbucket.org/burnfire/ciripitor/src/master/",
        "presentationImage": "../assets/images/Ciripitor/Home - Own profile.png",
         "description":{
           "ro":"Ciripitor este aplicația dezvoltată de mine în cadrul proiectului extins pentru materia Metode Avansate de Programare, din anul 2 de facultate. Ea reprezintă încercarea mea de a modela o rețea de socializare locală, folosind Java împreună cu JavaFX.",
            "en":"Ciripitor is the app developed by me during the extended project of the Advanced Methods of Programming, during the 2nd year of uni. It represents my approach to model a local social network using Java and JavaFX."
         },
         "features":{
            "ro":[
               "Înregistrare/autentificare",
               "Stocarea datelor în baza de date",
               "Prietenii între utilizatori prin confirmare a cererilor de prietenie",
               "Trimitere de mesaje"
            ],
            "en":[
               "Register/login",
               "Database data persistence",
               "Friendships between users using friendship confirmation",
               "Sending messages"
            ]
         }
      },
     {
       "title": "TabelADR",
       "descriptor": "tabel-adr",
       "repository": "https://bitbucket.org/burnfire/tabeladr/src/master/",
       "presentationImage": "../assets/images/TabelADR/Home.png",
       "description": {
         "ro": "Tabel ADR este o aplicație care permite unui șofer profesionist să verifice în ce condiții poate transporta în siguranță și legal bunuri periculoase. Această aplicație este scrisă în C++ folosind Qt pentru interfața grafică.",
         "en": "Tabel ADR (ADR Table) is an app that lets an professional driver check how should he legally and safely transport dangerous goods. This app is written in C++ using Qt for the GUI."
       },
       "features": {
         "ro":
           [
             "Căutarea unei substanțe după codul ONU",
             "Calcularea parametrilor care determină dacă o substanță poate fi transportată pe cale rutieră sau nu: cantitatea limitată și scorul ADR.",
             "Adăugarea, modificarea și ștergerea substanțelor disponibile"
           ],
         "en":
           [
             "Search substances by UN code",
             "Calculate the parameters that determine if a substance can be transported by road or not: the limited quantity and ADR score.",
             "Adding, modifying and removing available substances."
           ]
       }
     },
     {"title": "SA:MP Server*",
     "descriptor": "sampServer",
       "repository": "",
     "presentationImage": "",
     "description": {
       "ro": "Primul meu proiect de programare, dezvoltarea serverului de SA:MP a venit din dorința de a face ceva de la zero, să nu modific munca altor persoane.",
       "en": "My first coding project, the desire to develop the SA:MP server came because I did want to create something from the scratch, not to modify other people's work."
     },
     "features":{
       "ro": [
         "Hărți custom create utilizând creatorul de hărți MapEditor",
         "Persistența datelor",
         "Administrarea în joc a serverului"
       ],
       "en": [
         "Maps created using MapEditor program",
         "Data persistence",
         "In-game server administration"
       ]
     }},
     {
       "title": "Personal website",
       "descriptor": "",
       "repository": "https://bitbucket.org/burnfire/personal-website/src/master/",
       "presentationImage": "",
       "description": {
         "ro": "Site-ul pe care te afli acum",
         "en": "The website you're watching right now"
       },
       "features": {
         "ro": [

         ],
         "en": [

         ]
       }
     }
   ],
  "minorProjects": [
    {"title": "Binary tree generator",
      "presentationImage": "../assets/images/MinorProjects/Binary tree creator.png",
    "description": {
      "ro": "În cadrul materiei Programare Logică și Funcțională din anul 2 de facultate, am avut de făcut o problemă care implica procesarea unor arbori binari in Lisp, sub forma (rădăcină (listă-subarbore-stâng) (listă-subarbore-drept)). Pentru că am avut nevoie de date de intrare mai diverse pentru aplicație, și pentru că îmi place să văd cum calculatorul face munca dificilă în locul meu iar la final vine cu rezultate, am creat un program Python care îmi poate genera un astfel de arbore binar. Dacă dau un parametru de intrare număr, îmi generează acest arbore cu numere de la 0 la n-1. Dacă nu, introduc de la tastatură elementele listei din care vreau să creez acești arbori binari.",
      "en": "During the 2nd year of uni, for Logical and Functional Programming course, I had to make a Lisp problem that processes a binary tree that looked like this: (root (left-subtree-list) (right-subtree-list)). Because I needed more diverse input data for the app, and also because I like to put the computer to hard work and give results, I've created a Python program that generates this kind of binary trees. If I give a command-line number argument, it generates this kind of tree with numbers from 0 to n-1. Otherwise, I can give Python a list of elements that it can take to create the desired tree."
    }}
  ]
}
